[{
  "nome": "até R$ 973,00",
  "valor": 937
}, {
  "nome": "R$ 973,01 a R$ 1.760,00",
  "valor": 1760
}, {
  "nome": "R$ 1.760,01 a R$ 3.720,00",
  "valor": 3720
}, {
  "nome": "R$ 3.720,01 a R$ 8.800,00",
  "valor": 8800
}, {
  "nome": "R$ 8.800,01 a R$ 17.600,00",
  "valor": 17600
}, {
  "nome": "R$ 17.600,01 ou mais",
  "valor": 17601
}]
