[{
  "nome": "Acompanhamento do Programa (Assessoria)",
  "exclusivoParaLider": true,
  "informarQtdeCartas": false,
  "tipo": 2
}, {
  "nome": "Conversa com Voluntário",
  "exclusivoParaLider": true,
  "informarQtdeCartas": false,
  "tipo": 2
}, {
  "nome": "Encontro Anual de Voluntários Algar",
  "exclusivoParaLider": true,
  "informarQtdeCartas": false,
  "tipo": 2
}, {
  "nome": "Formação de Líderes Sociais",
  "exclusivoParaLider": true,
  "informarQtdeCartas": false,
  "tipo": 2
}, {
  "nome": "Formação de Voluntários",
  "exclusivoParaLider": true,
  "informarQtdeCartas": false,
  "tipo": 2
}, {
  "nome": "Planejamento de Ações",
  "exclusivoParaLider": true,
  "informarQtdeCartas": false,
  "tipo": 2
}, {
  "nome": "Preparação da ação",
  "exclusivoParaLider": true,
  "informarQtdeCartas": false,
  "tipo": 2
}, {
  "nome": "Registro de atividades no Portal",
  "exclusivoParaLider": true,
  "informarQtdeCartas": false,
  "tipo": 2
}, {
  "nome": "Evento de Encerramento",
  "exclusivoParaLider": false,
  "informarQtdeCartas": false,
  "tipo": 0
}, {
  "nome": "Oficina de Correspondência",
  "exclusivoParaLider": false,
  "informarQtdeCartas": true,
  "tipo": 1
}, {
  "nome": "Oficina de Cidadania",
  "exclusivoParaLider": false,
  "informarQtdeCartas": false,
  "tipo": 1
}, {
  "nome": "Oficina de Leitura",
  "exclusivoParaLider": false,
  "informarQtdeCartas": false,
  "tipo": 1
}, {
  "nome": "Oficina de Mídias",
  "exclusivoParaLider": false,
  "informarQtdeCartas": false,
  "tipo": 1
}, {
  "nome": "Oficina de Meio Ambiente",
  "exclusivoParaLider": false,
  "informarQtdeCartas": false,
  "tipo": 1
}, {
  "nome": "Outra Oficina",
  "exclusivoParaLider": false,
  "informarQtdeCartas": false,
  "tipo": 1
}, {
  "nome": "Passeio Cultural",
  "exclusivoParaLider": false,
  "informarQtdeCartas": false,
  "tipo": 1
}, {
  "nome": "Troca de Cartas",
  "exclusivoParaLider": false,
  "informarQtdeCartas": true,
  "tipo": 1
}, {
  "nome": "Reunião / Vídeo Conferência",
  "exclusivoParaLider": true,
  "informarQtdeCartas": false,
  "tipo": 2
}, {
  "nome": "Reunião Comitê de Gestão",
  "exclusivoParaLider": true,
  "informarQtdeCartas": false,
  "tipo": 2
}, {
  "nome": "Outra ação de gestão",
  "exclusivoParaLider": true,
  "informarQtdeCartas": false,
  "tipo": 2
}, {
  "nome": "Outra Ação Pontual",
  "exclusivoParaLider": false,
  "informarQtdeCartas": false,
  "tipo": 0
}, {
  "nome": "Dia da Gentileza",
  "exclusivoParaLider": false,
  "informarQtdeCartas": false,
  "tipo": 0
}, {
  "nome": "Da Gente pra Rua",
  "exclusivoParaLider": false,
  "informarQtdeCartas": false,
  "tipo": 0
}, {
  "nome": "Dia Nacional do Voluntariado",
  "exclusivoParaLider": false,
  "informarQtdeCartas": false,
  "tipo": 0
}, {
  "nome": "Ação de Natal",
  "exclusivoParaLider": false,
  "informarQtdeCartas": false,
  "tipo": 0
}, {
  "nome": "Reunião final de ano Líderes Sociais",
  "exclusivoParaLider": true,
  "informarQtdeCartas": false,
  "tipo": 2
}]
